// Jest Snapshot v1, https://goo.gl/fbAQLP

exports[`docs/rules/doctype-style.md inline validation: correct 1`] = `Array []`;

exports[`docs/rules/doctype-style.md inline validation: incorrect 1`] = `
Array [
  Object {
    "errorCount": 1,
    "filePath": "inline",
    "messages": Array [
      Object {
        "column": 1,
        "context": Object {
          "style": "uppercase",
        },
        "line": 1,
        "message": "DOCTYPE should be uppercase",
        "offset": 0,
        "ruleId": "doctype-style",
        "ruleUrl": "https://html-validate.org/rules/doctype-style.html",
        "selector": null,
        "severity": 2,
        "size": 10,
      },
    ],
    "source": "<!Doctype html>",
    "warningCount": 0,
  },
]
`;
